…
# No. of person injured in Bagmati


```r
zone <- earthquake_df %>%
  filter(zone == "Bagmati")
zone
```

```
## # A tibble: 80 x 6
##    district      zone    geo_region dev_region causalties          numbers
##    <chr>         <chr>   <chr>      <chr>      <chr>                 <int>
##  1 Sindhupalchok Bagmati Mountain   Central    Total No. of Houses   66688
##  2 Sindhupalchok Bagmati Mountain   Central    Total Population     287798
##  3 Sindhupalchok Bagmati Mountain   Central    Dead Male              1497
##  4 Sindhupalchok Bagmati Mountain   Central    Dead Female            1943
##  5 Sindhupalchok Bagmati Mountain   Central    Dead Unknown              0
##  6 Sindhupalchok Bagmati Mountain   Central    Injured                1571
##  7 Sindhupalchok Bagmati Mountain   Central    Govt. Houses Fully…       0
##  8 Sindhupalchok Bagmati Mountain   Central    Govt. Houses Parti…       0
##  9 Sindhupalchok Bagmati Mountain   Central    Public House Fully…   63885
## 10 Sindhupalchok Bagmati Mountain   Central    Public House Parti…    2751
## # ... with 70 more rows
```
…
# Death by Gender


```r
female_death <- earthquake_df %>% 
  filter(causalties == "Dead Female")
female_death
```

```
## # A tibble: 75 x 6
##    district      zone     geo_region dev_region causalties  numbers
##    <chr>         <chr>    <chr>      <chr>      <chr>         <int>
##  1 Sindhupalchok Bagmati  Mountain   Central    Dead Female    1943
##  2 Kathmandu     Bagmati  Hill       Central    Dead Female     600
##  3 Nuwakot       Bagmati  Hill       Central    Dead Female     625
##  4 Dhading       Bagmati  Hill       Central    Dead Female     393
##  5 Rasuwa        Bagmati  Mountain   Central    Dead Female     310
##  6 Gorkha        Gandaki  Hill       Western    Dead Female     230
##  7 Bhaktapur     Bagmati  Hill       Central    Dead Female     215
##  8 Kavre         Bagmati  Hill       Central    Dead Female     189
##  9 Lalitpur      Bagmati  Hill       Central    Dead Female     107
## 10 Dolakha       Janakpur Mountain   Central    Dead Female      85
## # ... with 65 more rows
```


```r
male_death <- earthquake_df %>% 
  filter(causalties == "Dead Male")

male_death
```

```
## # A tibble: 75 x 6
##    district      zone     geo_region dev_region causalties numbers
##    <chr>         <chr>    <chr>      <chr>      <chr>        <int>
##  1 Sindhupalchok Bagmati  Mountain   Central    Dead Male     1497
##  2 Kathmandu     Bagmati  Hill       Central    Dead Male      621
##  3 Nuwakot       Bagmati  Hill       Central    Dead Male      456
##  4 Dhading       Bagmati  Hill       Central    Dead Male      340
##  5 Rasuwa        Bagmati  Mountain   Central    Dead Male      287
##  6 Gorkha        Gandaki  Hill       Western    Dead Male      213
##  7 Bhaktapur     Bagmati  Hill       Central    Dead Male      118
##  8 Kavre         Bagmati  Hill       Central    Dead Male      129
##  9 Lalitpur      Bagmati  Hill       Central    Dead Male       67
## 10 Dolakha       Janakpur Mountain   Central    Dead Male       84
## # ... with 65 more rows
```
…
# Filter by Development Region


```r
central_region <- earthquake_df %>% 
  filter(dev_region == "Central")

central_region
```

```
## # A tibble: 190 x 6
##    district      zone    geo_region dev_region causalties          numbers
##    <chr>         <chr>   <chr>      <chr>      <chr>                 <int>
##  1 Sindhupalchok Bagmati Mountain   Central    Total No. of Houses   66688
##  2 Sindhupalchok Bagmati Mountain   Central    Total Population     287798
##  3 Sindhupalchok Bagmati Mountain   Central    Dead Male              1497
##  4 Sindhupalchok Bagmati Mountain   Central    Dead Female            1943
##  5 Sindhupalchok Bagmati Mountain   Central    Dead Unknown              0
##  6 Sindhupalchok Bagmati Mountain   Central    Injured                1571
##  7 Sindhupalchok Bagmati Mountain   Central    Govt. Houses Fully…       0
##  8 Sindhupalchok Bagmati Mountain   Central    Govt. Houses Parti…       0
##  9 Sindhupalchok Bagmati Mountain   Central    Public House Fully…   63885
## 10 Sindhupalchok Bagmati Mountain   Central    Public House Parti…    2751
## # ... with 180 more rows
```
…
